Rough Draft
…
speech_corpus_nrc %>%
  count(author, sentiment) %>%
  mutate(percent = n/sum(n)) %>%
  print()%>%
  ggplot(aes(sentiment, percent, fill= sentiment)) +
  geom_bar(alpha = .8, stat = "identity")+
  facet_wrap(~author) +
  coord_flip()

## Source: local data frame [40 x 4]
## Groups: author [4]
## 
##     author    sentiment     n    percent
##      <chr>        <chr> <int>      <dbl>
## 1  Clinton        anger  1734 0.05281594
## 2  Clinton anticipation  3774 0.11495233
## 3  Clinton      disgust   869 0.02646889
## 4  Clinton         fear  2086 0.06353751
## 5  Clinton          joy  3356 0.10222046
## 6  Clinton     negative  3410 0.10386525
## 7  Clinton     positive  8259 0.25156102
## 8  Clinton      sadness  1743 0.05309007
## 9  Clinton     surprise  2031 0.06186226
## 10 Clinton        trust  5569 0.16962627
## # ... with 30 more rows
…
speech_corpus_nrc %>%
  count(sentiment, author) %>%
  group_by(sentiment) %>%
  mutate(percent = n/sum(n)) %>%
  print() %>%
  ggplot(aes(author, percent, fill= author)) +
  geom_bar(stat = "identity", alpha = .85, show.legend = FALSE) +
  facet_wrap(~sentiment, scales = "free") +
  coord_flip() +
  labs(x = "sentiment",
       y= "% of Sentiment Between Candidates")

## Source: local data frame [40 x 4]
## Groups: sentiment [10]
## 
##       sentiment            author     n    percent
##           <chr>             <chr> <int>      <dbl>
## 1         anger           Clinton  1734 0.28765760
## 2         anger Cruz/Kasich/Rubio   288 0.04777704
## 3         anger           Sanders   978 0.16224287
## 4         anger             Trump  3028 0.50232250
## 5  anticipation           Clinton  3774 0.43751449
## 6  anticipation Cruz/Kasich/Rubio   378 0.04382101
## 7  anticipation           Sanders  1296 0.15024345
## 8  anticipation             Trump  3178 0.36842105
## 9       disgust           Clinton   869 0.27745849
## 10      disgust Cruz/Kasich/Rubio   142 0.04533844
## # ... with 30 more rows
…
speech_td <- speech_corpus %>%
  group_by(author, docnumber) %>%
  filter(word != "applause") %>%
  count(word) %>%
  select(author, word, n, docnumber) %>%
  mutate(docid = paste0(author, docnumber)) %>%
  anti_join(mystopwords2)

## Joining, by = "word"

speech_td

## Source: local data frame [66,552 x 5]
## Groups: author, docnumber [113]
## 
##     author  word     n docnumber     docid
##      <chr> <chr> <int>     <chr>     <chr>
## 1  Clinton     1     1         1  Clinton1
## 2  Clinton     1     1        24 Clinton24
## 3  Clinton     1     1        29 Clinton29
## 4  Clinton     1     1        30 Clinton30
## 5  Clinton     1     1        33 Clinton33
## 6  Clinton     1     1         5  Clinton5
## 7  Clinton     1     2         7  Clinton7
## 8  Sanders     1     5         1  Sanders1
## 9  Sanders     1     2        10 Sanders10
## 10 Sanders     1     2        11 Sanders11
## # ... with 66,542 more rows
…
inverse_doc_freq <- speech_td %>%
  bind_tf_idf(word, docid, n) %>%
  arrange(desc(tf_idf)) %>%
  mutate(word = factor(word, levels = rev(unique(word))))
inverse_doc_freq

## Source: local data frame [66,552 x 8]
## Groups: author, docnumber [113]
## 
##               author       word     n docnumber              docid
##                <chr>     <fctr> <int>     <chr>              <chr>
## 1            Sanders    inskeep    22         3           Sanders3
## 2              Trump     israel    40        53            Trump53
## 3              Trump      cyber    19        16            Trump16
## 4            Clinton   reporter     7         4           Clinton4
## 5  Cruz/Kasich/Rubio     israel    34         3 Cruz/Kasich/Rubio3
## 6  Cruz/Kasich/Rubio     israel    33         6 Cruz/Kasich/Rubio6
## 7              Trump     bishop     7        40            Trump40
## 8            Clinton americorps    12        13          Clinton13
## 9            Clinton     israel    36        26          Clinton26
## 10             Trump         va    21        49            Trump49
## # ... with 66,542 more rows, and 3 more variables: tf <dbl>, idf <dbl>,
## #   tf_idf <dbl>
…
Trump_td <- Trump_Corpus %>%
  group_by(docnumber) %>%
  filter(word != "applause") %>%
  count(word) %>%
  select(word, n, docnumber)
Trump_td

## Source: local data frame [40,821 x 3]
## Groups: docnumber [53]
## 
##      word     n docnumber
##     <chr> <int>     <chr>
## 1      10     1         1
## 2     100     1         1
## 3      11     1         1
## 4     116     1         1
## 5      13     1         1
## 6  14,000     1         1
## 7     145     1         1
## 8      15     2         1
## 9     200     1         1
## 10     21     1         1
## # ... with 40,811 more rows
…
Clinton_td <- Clinton_Corpus %>%
  group_by(docnumber) %>%
  filter(word != "applause") %>%
  count(word) %>%
  select(word, n, docnumber)
Clinton_td

## Source: local data frame [35,186 x 3]
## Groups: docnumber [36]
## 
##       word     n docnumber
##      <chr> <int>     <chr>
## 1        1     1         1
## 2       10     1         1
## 3  100,000     1         1
## 4      112     1         1
## 5  125,000     1         1
## 6       15     1         1
## 7     1987     1         1
## 8  250,000     1         1
## 9       26     1         1
## 10      30     2         1
## # ... with 35,176 more rows
…
Sanders_td <- Sanders_Corpus %>%
  group_by(docnumber) %>%
  filter(word != "applause") %>%
  count(word) %>%
  select(word, n, docnumber)
Sanders_td

## Source: local data frame [13,424 x 3]
## Groups: docnumber [17]
## 
##       word     n docnumber
##      <chr> <int>     <chr>
## 1        1     5         1
## 2    1,846     1         1
## 3      1.4     1         1
## 4    10.45     1         1
## 5  125,000     1         1
## 6       13     1         1
## 7     1928     1         1
## 8        2     4         1
## 9       20     1         1
## 10    21st     1         1
## # ... with 13,414 more rows
…
Repub_td <- Repub_Corpus %>%
  group_by(docnumber) %>%
  filter(word != "applause") %>%
  count(word) %>%
  select(word, n, docnumber)
Repub_td

## Source: local data frame [5,058 x 3]
## Groups: docnumber [7]
## 
##         word     n docnumber
##        <chr> <int>     <chr>
## 1        100     1         1
## 2          a    26         1
## 3       able     2         1
## 4      about     7         1
## 5    abraham     1         1
## 6  according     1         1
## 7    achieve     1         1
## 8        act     1         1
## 9  admitting     1         1
## 10     again     1         1
## # ... with 5,048 more rows
…
